7 Dataøvinger – MET4 – Empiriske Metoder
…
7.2.3.1 Oppgave 1

Costa Rica er en stor kaffeprodusent med moderne produksjon. Kaffeprodusentene har over lengre tid benyttet en standardisert miks av sprøytemidler som skal ta knekken på ugress og skadelige insekter, men uten å skade avlingen eller miljøet ellers.

En liten kaffeplantasje i Costa Rica har begynt å eksperimentere med en ny kombinasjon av sprøytemidler som skal være like effektiv mot ugress, men samtidig enda mer skånsom mot kaffeplantene, slik at avlingen blir større. Innehaveren av plantasjen ønsker å sette opp et eksperiment for å undersøke denne påstanden. Han velger ut 25 tilfeldige jordlapper fordelt på hele eiendommen der han bruker de nye sprøytemidlene gjennom en hel sesong.

Lang erfaring har vist at avlingen ved bruk av gammel metode er normalfordelt med forventning \(\mu = 100\) og standardavvik \(\sigma = 10\), der vi har brukt en standardisert enhet for mengde avling per arealenhet. Hjelp bonden, ved å løse følgende oppgaver:

Oppgave 1.1: Les inn datasettet testdatasdata.xsl i RStudio og se på de første par radene. Det kan du gjøre ved å kjøre følgende kodelinjer:

library(readxl)                                 # Pakke for å lese excel-filer
data <- read_excel("testdata.xls")              # Leser inn datasettet
data                                            # Ser på datasettet

# A tibble: 25 × 4
      X1    X2    A1    A2
   <dbl> <dbl> <dbl> <dbl>
 1 122.  121.      1     1
 2 101.  105       1     1
 3 114.  108       1     1
 4 103    99.1     1     0
 5  97.6  96.2     0     0
 6  85.9  95.4     0     0
 7  93.5 101.      0     1
 8  92    97       0     0
 9  98.8 106.      0     1
10  99.9 100.      0     1
# ℹ 15 more rows
…
Vi skal i denne oppgaven returnere til kaffeproduksjon. Vi skal gjøre statistiske tester i R som i de tidligere oppgavene i denne øvingen, men vanskelighetsgraden går opp fordi vi også må tenke nøye over hvordan vi anvender metodene korrekt i en gitt kontekst.

I 2002 publiserte det prestisjetunge tidsskriftet Nature en kort artikkel skrevet av David W. Roubik1, som handler om den kjente kaffebønnen Arabica. Arabicabønnen kommer opprinnelig fra Afrika, og er en selvpollinerende plante. Det vil si at den ikke er avhengig av insekter for å formere seg, og man trodde lenge at den heller ikke hadde noen fordeler av insektspollinering.

For å undersøke denne påstanden samlet Roubik inn historiske data over arabicaavlinger fra hele verden. Han delte verdens kaffeproduserende land inn i to kategorier: Old world som omfatter afrikanske og asiatiske land, og New world som omfatter land i Latin-Amerika. Han registrerte videre gjennomsnittlig årlig avling (målt i kg/hektar) i to perioder: 1961–80 og 1981–2001.

Nøkkelen til analysen er at den afrikanske honningbien var en viktig pollinator i Afrika og Asia både i den første og andre perioden, men knapt eksisterte i Amerika før 1980. Etter 1980, derimot, økte utbredelsen av denne bien i Amerika, og ble fort naturalisert. Kan vi sette denne utviklingen i sammenheng med økt kaffeavling i Latin-Amerika etter 1980, og dermed skrote teorien om at kaffeplanter ikke drar nytte av insektspollinering?

Oppgave 3.1: For å undersøke dette kan vi bruke datasettet som Roubik brukte, som finnes i filen roubik_2002_coffe_yield.xlsx. Last datasettet inn i R på vanlig måte, og se på det:

yield <- read_excel("roubik_2002_coffe_yield.xlsx")
yield

# A tibble: 28 × 4
   world country     yield_61_to_80 yield_81_to_01
   <chr> <chr>                <dbl>          <dbl>
 1 new   Costa_Rica            9139          14620
 2 new   Bolivia               7686           8767
 3 new   El_Salvador           9996           8729
 4 new   Guatemala             5488           8231
 5 new   Colombia              5920           7740
 6 new   Honduras              4096           7264
 7 new   Nicaragua             4566           6408
 8 new   Brazil                4965           6283
 9 new   Peru                  5487           5740
10 new   Mexico                5227           5116
# ℹ 18 more rows
…
7.3.2 Oppgave 2: Regresjonsanalyse

Et rock-and-roll museum åpnet i Atlanta i 1990. Museet lå i en sentral del av byen i nærheten av mange ulike butikker. Mot slutten av juli måned i 1992 startet en stor brann i en av disse butikkene som ødela hele kvartalet, inkludert museet. Heldigvis var museet forsikret, både mot selve brannskadene, og mot tapte billettinntekter i gjennoppbyggingsperioden.

Vanligvis vil et forsikringsselskap beregne erstatningsbeløpet under antakelsen om at besøkstallene i gjenoppbyggingsperioden ville vært på samme nivå som besøkstallene i tiden før brannen. I dette tilfellet mente derimot eierne av museet at besøkstallene var økende, slik at de reelt sett hadde krav på et større erstatningsbeløp. Argumentet var basert på besøkstallene til en fornøyelsespark like ved. Fornøyelsesparken åpnet i desember 1991, slik at museet og parken opererte sammen i de siste fire ukene av 1991, og de første 28 ukene i 1992 før brannen ødela museet.

Museet åpnet igjen i april 1995, men var da betydelig større enn det var opprinnelig. Data for besøkstall for museet og fornøyelsesparken finner vi i regnearket C16-01.xlsx. Som i de to foregående dataøvingene legger du denne filen i en mappe på maskinen din, og oppretter et tomt R-script der du lagrer koden for denne oppgaven.

Oppgave 2.1: Kikk raskt på datasettet i Excel eller tilsvarende. Du ser at det er tre kolonner, en som angir ukenummer (Week, teller fra 1 til 205), en som angir ukentlig besøkstall på museet (Museum) og en som angir ukentlig besøkstall i fornøyelsesparken (A-Park). Legg merke til at besøkstallet i museet er null fra og med uke 33, til og med uke 179, som er perioden fra brannen til nyåpning.

Oppgave 2.2: Last så datasettet inn i R som før ved hjelp av read_excel()-funksjonen. Gi det et passelig navn (f.eks visits), og sjekk raskt at det har gått bra ved å taste inn datanavnet i konsollen. Da skal det se omtrent slik ut:

visits

# A tibble: 205 × 3
    Week Museum `A-Park`
   <dbl>  <dbl>    <dbl>
 1     1    787     1379
 2     2   1179     1396
 3     3   4225     5332
 4     4   1336     1477
 5     5   2122     3717
 6     6   1136     1663
 7     7   2413     3573
 8     8   1399     2086
 9     9   1528     2503
10    10   1788     2553
# ℹ 195 more rows
…
